# # # Main # # #

# # # Steps
    # Download Metrc data
    # Open NAV
    # Export and load strain info
    # Open Harvest Journal
    # Export and load active Harvest Journal
    # Setup Metrc data, strain data, and Harvest Journal data
    # Find all Harvest Journal waste > 0.00
    # Find all Metrc waste > 0.00
    # Subtract Harvest Journal waste found from Metrc waste found
    # and store it as waste_to_enter
    # Find all waste_to_enter == 0.00 and drop
    # Find all waste_to_enter < 0.00 and flag
    # For each waste_to_enter strain, find dominancy code
    # and add to waste_to_enter as a column
    # For each waste_to_enter, create a Harvest Journal package



in main():
    """Without Merge
    to_enter["Waste"] = (entered[to_enter_index]["Waste"]
                         - metrc[to_enter_index]["Waste"])
    Without Merge"""

    # to_enter_index = entered[entered.index.isin(metrc.index)].index
    # to_enter = pd.merge(entered["Waste"], metrc, how="inner",
    #                       on="Harvest Name", suffixes=("", "_Entered"))
    # to_enter["To Enter"] = to_enter["Waste_Entered"] - to_enter["Waste"]

    """ SAVED INDEX ERRORS
    m.loc[~m.index.isin(e.index)]
    e.join(m, how="inner", lsuffix="e", rsuffix='m')
    test = e.join(m, how="left", lsuffix="e", rsuffix='m')
    """

    """
    # NOT ENUMERATING "Serenity"!!!!
    # Maybe del values while using index fucks it up?
    for index, strain in enumerate(strains_used):
        if strain in Not_In_Nav:
            logger.debug(f"Removing {strain} from 'strains_used'")
            del strains_used[index]
    """

    """Enter each package in Nav
    for batch in to_enter.index:
        # Get fields unique to each batch
        item = to_enter.iloc[batch]["Dominancy"]
        weight = to_enter.iloc[batch]["Waste"]

        # Enter package info
        pyautogui.press("enter")  # Submit
    """
